Biostat 203B Homework 5
…
Engine-Specific Arguments:
  standardize = FALSE

Computational engine: glmnet 

Tuning grid:

logit_grid <- grid_regular(
  penalty(range = c(-6, 3)), 
  mixture(),
  levels = c(100, 5)
  ) |>
  print()

# A tibble: 500 × 2
      penalty mixture
        <dbl>   <dbl>
 1 0.000001         0
 2 0.00000123       0
 3 0.00000152       0
 4 0.00000187       0
 5 0.00000231       0
 6 0.00000285       0
 7 0.00000351       0
 8 0.00000433       0
 9 0.00000534       0
10 0.00000658       0
# ℹ 490 more rows
…
Visualize CV results:

logit_fit |>
  # aggregate metrics from K folds
  collect_metrics() |>
  print(width = Inf) |>
  filter(.metric == "roc_auc") |>
  ggplot(mapping = aes(x = penalty, y = mean, color = factor(mixture))) +
  geom_point() +
  labs(x = "Penalty", y = "CV AUC") +
  scale_x_log10()

# A tibble: 1,000 × 8
      penalty mixture .metric  .estimator  mean     n std_err
        <dbl>   <dbl> <chr>    <chr>      <dbl> <int>   <dbl>
 1 0.000001         0 accuracy binary     0.576     5 0.00325
 2 0.000001         0 roc_auc  binary     0.600     5 0.00331
 3 0.00000123       0 accuracy binary     0.576     5 0.00325
 4 0.00000123       0 roc_auc  binary     0.600     5 0.00331
 5 0.00000152       0 accuracy binary     0.576     5 0.00325
 6 0.00000152       0 roc_auc  binary     0.600     5 0.00331
 7 0.00000187       0 accuracy binary     0.576     5 0.00325
 8 0.00000187       0 roc_auc  binary     0.600     5 0.00331
 9 0.00000231       0 accuracy binary     0.576     5 0.00325
10 0.00000231       0 roc_auc  binary     0.600     5 0.00331
   .config               
   <chr>                 
 1 Preprocessor1_Model001
 2 Preprocessor1_Model001
 3 Preprocessor1_Model002
 4 Preprocessor1_Model002
 5 Preprocessor1_Model003
 6 Preprocessor1_Model003
 7 Preprocessor1_Model004
 8 Preprocessor1_Model004
 9 Preprocessor1_Model005
10 Preprocessor1_Model005
# ℹ 990 more rows
…
Engine-Specific Arguments:
  importance = impurity

Computational engine: ranger 

Tuning grid:

rf_grid <- grid_regular(
  trees(range = c(100L, 500L)), 
  mtry(range = c(1L, 5L)),
  levels = c(5, 5)
  )
rf_grid

# A tibble: 25 × 2
   trees  mtry
   <int> <int>
 1   100     1
 2   200     1
 3   300     1
 4   400     1
 5   500     1
 6   100     2
 7   200     2
 8   300     2
 9   400     2
10   500     2
# ℹ 15 more rows
…
Visualize CV results:

rf_fit |>
  collect_metrics() |>
  print(width = Inf) |>
  filter(.metric == "roc_auc") |>
  ggplot(mapping = aes(x = trees, y = mean, color = factor(mtry))) +
  geom_point() + 
  # geom_line() + 
  labs(x = "Number of Trees", y = "CV AUC")

# A tibble: 50 × 8
    mtry trees .metric  .estimator  mean     n std_err .config              
   <int> <int> <chr>    <chr>      <dbl> <int>   <dbl> <chr>                
 1     1   100 accuracy binary     0.586     5 0.00339 Preprocessor1_Model01
 2     1   100 roc_auc  binary     0.623     5 0.00296 Preprocessor1_Model01
 3     1   200 accuracy binary     0.591     5 0.00212 Preprocessor1_Model02
 4     1   200 roc_auc  binary     0.631     5 0.00250 Preprocessor1_Model02
 5     1   300 accuracy binary     0.593     5 0.00296 Preprocessor1_Model03
 6     1   300 roc_auc  binary     0.633     5 0.00216 Preprocessor1_Model03
 7     1   400 accuracy binary     0.593     5 0.00349 Preprocessor1_Model04
 8     1   400 roc_auc  binary     0.632     5 0.00282 Preprocessor1_Model04
 9     1   500 accuracy binary     0.594     5 0.00405 Preprocessor1_Model05
10     1   500 roc_auc  binary     0.634     5 0.00296 Preprocessor1_Model05
# ℹ 40 more rows
…
Computational engine: xgboost 

Tuning grid:

gb_grid <- grid_regular(
  tree_depth(range = c(1L, 3L)),
  learn_rate(range = c(-5, 2), trans = log10_trans()),
  levels = c(3, 10)
  )
gb_grid

# A tibble: 30 × 2
   tree_depth learn_rate
        <int>      <dbl>
 1          1  0.00001  
 2          2  0.00001  
 3          3  0.00001  
 4          1  0.0000599
 5          2  0.0000599
 6          3  0.0000599
 7          1  0.000359 
 8          2  0.000359 
 9          3  0.000359 
10          1  0.00215  
# ℹ 20 more rows
…
Visualize CV results:

gb_fit |>
  collect_metrics() |>
  print(width = Inf) |>
  filter(.metric == "roc_auc") |>
  ggplot(mapping = aes(x = learn_rate, y = mean, color = factor(tree_depth))) +
  geom_point() +
  labs(x = "Learning Rate", y = "CV AUC") +
  scale_x_log10()

# A tibble: 60 × 8
   tree_depth learn_rate .metric  .estimator  mean     n std_err
        <int>      <dbl> <chr>    <chr>      <dbl> <int>   <dbl>
 1          1  0.00001   accuracy binary     0.539     5 0.00326
 2          1  0.00001   roc_auc  binary     0.538     5 0.00237
 3          2  0.00001   accuracy binary     0.539     5 0.00367
 4          2  0.00001   roc_auc  binary     0.554     5 0.00115
 5          3  0.00001   accuracy binary     0.550     5 0.00370
 6          3  0.00001   roc_auc  binary     0.565     5 0.00116
 7          1  0.0000599 accuracy binary     0.540     5 0.00245
 8          1  0.0000599 roc_auc  binary     0.541     5 0.00338
 9          2  0.0000599 accuracy binary     0.543     5 0.00247
10          2  0.0000599 roc_auc  binary     0.560     5 0.00263
   .config              
   <chr>                
 1 Preprocessor1_Model01
 2 Preprocessor1_Model01
 3 Preprocessor1_Model02
 4 Preprocessor1_Model02
 5 Preprocessor1_Model03
 6 Preprocessor1_Model03
 7 Preprocessor1_Model04
 8 Preprocessor1_Model04
 9 Preprocessor1_Model05
10 Preprocessor1_Model05
# ℹ 50 more rows
…
To identify which model configurations were assigned what stacking coefficients, we can make use of the collect_parameters() function:

collect_parameters(mimic_model_st, "rf_fit")

# A tibble: 25 × 5
   member       mtry trees terms                   coef
   <chr>       <int> <int> <chr>                  <dbl>
 1 rf_fit_1_01     1   100 .pred_yes_rf_fit_1_01 0     
 2 rf_fit_1_02     1   200 .pred_yes_rf_fit_1_02 0.491 
 3 rf_fit_1_03     1   300 .pred_yes_rf_fit_1_03 0.275 
 4 rf_fit_1_04     1   400 .pred_yes_rf_fit_1_04 0     
 5 rf_fit_1_05     1   500 .pred_yes_rf_fit_1_05 0.0148
 6 rf_fit_1_06     2   100 .pred_yes_rf_fit_1_06 0     
 7 rf_fit_1_07     2   200 .pred_yes_rf_fit_1_07 0.170 
 8 rf_fit_1_08     2   300 .pred_yes_rf_fit_1_08 0.353 
 9 rf_fit_1_09     2   400 .pred_yes_rf_fit_1_09 0.0281
10 rf_fit_1_10     2   500 .pred_yes_rf_fit_1_10 0.0657
# ℹ 15 more rows

collect_parameters(mimic_model_st, "gb_fit")

# A tibble: 30 × 5
   member      tree_depth learn_rate terms                  coef
   <chr>            <int>      <dbl> <chr>                 <dbl>
 1 gb_fit_1_01          1  0.00001   .pred_yes_gb_fit_1_01     0
 2 gb_fit_1_02          2  0.00001   .pred_yes_gb_fit_1_02     0
 3 gb_fit_1_03          3  0.00001   .pred_yes_gb_fit_1_03     0
 4 gb_fit_1_04          1  0.0000599 .pred_yes_gb_fit_1_04     0
 5 gb_fit_1_05          2  0.0000599 .pred_yes_gb_fit_1_05     0
 6 gb_fit_1_06          3  0.0000599 .pred_yes_gb_fit_1_06     0
 7 gb_fit_1_07          1  0.000359  .pred_yes_gb_fit_1_07     0
 8 gb_fit_1_08          2  0.000359  .pred_yes_gb_fit_1_08     0
 9 gb_fit_1_09          3  0.000359  .pred_yes_gb_fit_1_09     0
10 gb_fit_1_10          1  0.00215   .pred_yes_gb_fit_1_10     0
# ℹ 20 more rows
…
